<svg width="130" height="117" viewBox="0 0 130 117" fill="none" xmlns="http://www.w3.org/2000/svg">
<g opacity="0.1">
<path d="M37.7583 116.963C31.8698 116.963 26.6356 116.363 22.0556 115.164C17.4757 114.073 13.6045 112.546 10.4421 110.584C7.38883 108.621 5.04433 106.331 3.40863 103.714C1.77293 100.987 0.955078 98.0978 0.955078 95.0444C0.955078 90.7916 2.15459 87.4112 4.55362 84.9031C7.06169 82.286 10.2786 80.9774 14.2042 80.9774C18.4571 80.9774 21.7285 82.286 24.0184 84.9031C26.3084 87.4112 27.4534 90.519 27.4534 94.2266C27.4534 96.0804 26.8537 97.8797 25.6542 99.6244C24.5637 101.369 23.2551 102.896 21.7285 104.204V105.186C23.1461 105.622 24.7818 106.004 26.6356 106.331C28.5984 106.549 30.5067 106.658 32.3605 106.658C39.3395 106.658 44.7918 104.859 48.7175 101.26C52.6432 97.6616 54.606 91.8821 54.606 83.9217V79.6689C54.606 65.6018 48.1723 58.5683 35.3048 58.5683C31.3791 58.5683 27.9441 59.5498 24.9999 61.5126C22.0556 63.3664 19.8747 65.5473 18.4571 68.0554L6.51646 65.6018L10.9328 0.828125H77.3423V24.7093H20.747L18.1299 59.2226H18.9478C19.9292 57.4779 21.1287 55.6786 22.5463 53.8248C24.073 51.971 25.9268 50.3353 28.1077 48.9177C30.3977 47.3911 33.0693 46.1915 36.1226 45.3192C39.1759 44.3377 42.7199 43.847 46.7547 43.847C57.7684 43.847 66.4921 46.9549 72.9259 53.1705C79.4687 59.2771 82.7401 67.9464 82.7401 79.1782C82.7401 91.0642 78.7599 100.333 70.7995 106.985C62.9481 113.637 51.9344 116.963 37.7583 116.963Z" fill="#FCFCFC"/>
<path d="M114.899 116.963C110.101 116.963 106.448 115.6 103.94 112.874C101.432 110.038 100.178 106.658 100.178 102.732V102.078C100.178 98.1523 101.432 94.8264 103.94 92.1002C106.448 89.265 110.101 87.8474 114.899 87.8474C119.698 87.8474 123.351 89.265 125.859 92.1002C128.367 94.8264 129.621 98.1523 129.621 102.078V102.732C129.621 106.658 128.367 110.038 125.859 112.874C123.351 115.6 119.698 116.963 114.899 116.963Z" fill="#FCFCFC"/>
</g>
</svg>
