<svg width="132" height="117" viewBox="0 0 132 117" fill="none" xmlns="http://www.w3.org/2000/svg">
<g opacity="0.1">
<path d="M46.792 87.8371H0.0109863V72.1344L44.3385 0H72.3089V69.1901H88.6659V87.8371H72.3089V114.172H46.792V87.8371ZM14.078 69.1901H46.792V16.6841H46.1377L14.078 69.1901Z" fill="#FCFCFC"/>
<path d="M116.9 116.135C112.102 116.135 108.449 114.772 105.94 112.045C103.432 109.21 102.178 105.83 102.178 101.904V101.25C102.178 97.3242 103.432 93.9982 105.94 91.2721C108.449 88.4369 112.102 87.0192 116.9 87.0192C121.698 87.0192 125.351 88.4369 127.859 91.2721C130.367 93.9982 131.621 97.3242 131.621 101.25V101.904C131.621 105.83 130.367 109.21 127.859 112.045C125.351 114.772 121.698 116.135 116.9 116.135Z" fill="#FCFCFC"/>
</g>
</svg>
