<svg width="90" height="90" viewBox="0 0 90 90" fill="none" xmlns="http://www.w3.org/2000/svg">
<circle cx="45" cy="45" r="45" fill="url(#paint0_linear)"/>
<path d="M49.1136 57.053H40.3143C39.9236 57.053 39.5813 57.2005 39.288 57.4933C38.9944 57.7869 38.8479 58.1287 38.8479 58.5199V67.3196C38.8479 67.7107 38.9949 68.0531 39.288 68.3461C39.5813 68.6388 39.9233 68.7861 40.3143 68.7861H49.1136C49.5042 68.7861 49.8475 68.6392 50.1396 68.3461C50.4337 68.0531 50.5805 67.7107 50.5805 67.3196V58.5199C50.5805 58.1287 50.4341 57.7869 50.1396 57.4933C49.8475 57.1998 49.5042 57.053 49.1136 57.053Z" fill="white"/>
<path d="M60.6641 30.7116C59.6616 28.8652 58.3666 27.3078 56.7774 26.0365C55.1893 24.7657 53.4038 23.7508 51.4244 22.9934C49.4446 22.2363 47.4771 21.8572 45.5214 21.8572C38.0914 21.8572 32.4209 25.108 28.5099 31.6098C28.3145 31.9274 28.2471 32.2695 28.3081 32.6363C28.3695 33.0025 28.5589 33.3081 28.8766 33.5525L34.8896 38.1358C35.2073 38.331 35.5129 38.4287 35.8063 38.4287C36.2464 38.4287 36.625 38.2329 36.9431 37.8419C38.7026 35.6424 40.0105 34.237 40.8659 33.6256C41.9171 32.917 43.2366 32.5628 44.8254 32.5628C46.3163 32.5628 47.6297 32.954 48.7667 33.7355C49.9032 34.5178 50.4709 35.4223 50.4709 36.4488C50.4709 37.5971 50.1659 38.5263 49.5547 39.2352C48.9438 39.9438 47.9168 40.6279 46.4745 41.288C44.5685 42.1434 42.8201 43.4696 41.2322 45.2661C39.643 47.0628 38.849 48.9754 38.849 51.004V52.6537C38.849 53.1186 38.9767 53.5767 39.2337 54.0288C39.4906 54.4814 39.802 54.7072 40.1689 54.7072H48.9681C49.3592 54.7072 49.7011 54.5182 49.9946 54.1381C50.2873 53.7603 50.4346 53.363 50.4346 52.9481C50.4346 52.3372 50.7706 51.5175 51.4422 50.4915C52.1145 49.4649 52.9514 48.6698 53.9543 48.1074C54.907 47.5699 55.6518 47.1366 56.1902 46.8062C56.729 46.4767 57.4312 45.9439 58.2991 45.2111C59.1667 44.4776 59.839 43.7504 60.315 43.0296C60.7918 42.3087 61.2198 41.3736 61.5987 40.2245C61.9783 39.0758 62.1673 37.8414 62.1673 36.5216C62.167 34.4929 61.6656 32.556 60.6641 30.7116Z" fill="white"/>
<defs>
<linearGradient id="paint0_linear" x1="12.8571" y1="9.96428" x2="59.4643" y2="84.8571" gradientUnits="userSpaceOnUse">
<stop stop-color="#51B6FF"/>
<stop offset="1" stop-color="#0094FF"/>
</linearGradient>
</defs>
</svg>
