<svg width="90" height="90" viewBox="0 0 90 90" fill="none" xmlns="http://www.w3.org/2000/svg">
<circle cx="45" cy="45" r="45" fill="url(#paint0_linear)"/>
<g clip-path="url(#clip0)">
<path d="M61.3477 50.1855C61.3477 50.9136 60.7574 51.5039 60.0293 51.5039C59.3012 51.5039 58.7109 50.9136 58.7109 50.1855V49.7461H22.5C22.5 52.4116 24.6685 54.5801 27.334 54.5801H62.666C65.3315 54.5801 67.5 52.4116 67.5 49.7461H61.3477V50.1855Z" fill="white"/>
<path d="M51.5918 62.666H38.4082C36.4666 62.666 34.8926 64.24 34.8926 66.1816C34.8926 66.9097 35.4829 67.5 36.2109 67.5H53.7891C54.5171 67.5 55.1074 66.9097 55.1074 66.1816C55.1074 64.24 53.5334 62.666 51.5918 62.666Z" fill="white"/>
<path d="M62.666 22.5H27.334C24.6685 22.5 22.5 24.6685 22.5 27.334V47.1094H67.5V27.334C67.5 24.6685 65.3315 22.5 62.666 22.5ZM42.3389 38.4456C42.2234 40.6709 40.3865 42.4493 38.1571 42.4942C38.1278 42.4948 38.0987 42.4951 38.0696 42.4951C35.9422 42.4951 34.13 40.9271 33.8352 38.8146C33.8078 38.6188 33.7939 38.4187 33.7939 38.2197C33.7939 37.613 34.2859 37.121 34.8926 37.121C35.4994 37.121 35.9912 37.613 35.9912 38.2197C35.9912 38.3173 35.998 38.4154 36.0113 38.5108C36.1564 39.5506 37.0604 40.3175 38.1128 40.2973C39.1961 40.2754 40.0885 39.4121 40.1446 38.3317C40.1745 37.7547 39.9727 37.2069 39.5764 36.7894C39.1796 36.3716 38.6445 36.1415 38.0694 36.1415C37.2478 36.1415 36.9118 36.2651 36.4928 36.4537C36.4466 36.4745 36.417 36.489 36.4083 36.4934C36.039 36.6848 35.5954 36.65 35.2592 36.4054C34.9228 36.1609 34.7554 35.7464 34.8233 35.3363L35.5964 30.67C35.6843 30.1397 36.1428 29.7509 36.6803 29.7509H40.5828C41.1895 29.7509 41.6814 30.2428 41.6814 30.8495C41.6814 31.4562 41.1895 31.9482 40.5828 31.9482H37.6119L37.275 33.9812C37.5127 33.9569 37.7741 33.9442 38.0694 33.9442C39.2359 33.9442 40.3659 34.4298 41.1698 35.2766C41.9852 36.1355 42.4004 37.2609 42.3389 38.4456ZM50.5551 42.4951C47.0415 42.4951 44.1831 39.6367 44.1831 36.123C44.1831 32.6094 47.0415 29.751 50.5551 29.751C51.8319 29.751 53.0642 30.1275 54.1187 30.8399C54.6214 31.1796 54.7537 31.8625 54.4139 32.3653C54.0743 32.8678 53.3913 33.0005 52.8885 32.6605C52.1988 32.1945 51.3919 31.9482 50.5551 31.9482C48.2532 31.9482 46.3803 33.8211 46.3803 36.123C46.3803 38.425 48.2532 40.2979 50.5551 40.2979C52.6271 40.2979 53.6125 38.8121 53.9089 37.2217H51.9523C51.3456 37.2217 50.8537 36.7298 50.8537 36.123C50.8537 35.5163 51.3456 35.0244 51.9523 35.0244H55.1074C55.7141 35.0244 56.2061 35.5163 56.2061 36.123C56.2061 39.8748 53.8823 42.4951 50.5551 42.4951Z" fill="white"/>
<rect x="32.1428" y="27" width="26.3571" height="18" fill="white"/>
<path d="M38.4082 57.2168H51.5918V60.0293H38.4082V57.2168Z" fill="white"/>
</g>
<defs>
<linearGradient id="paint0_linear" x1="12.8571" y1="9.96428" x2="59.4643" y2="84.8571" gradientUnits="userSpaceOnUse">
<stop stop-color="#51B6FF"/>
<stop offset="1" stop-color="#0094FF"/>
</linearGradient>
<clipPath id="clip0">
<rect width="45" height="45" fill="white" transform="translate(22.5 22.5)"/>
</clipPath>
</defs>
</svg>
