<svg width="180" height="124" viewBox="0 0 180 124" fill="none" xmlns="http://www.w3.org/2000/svg">
<path d="M37.8505 124C25.514 124 16.1215 120.497 9.6729 113.492C3.2243 106.206 0 97.5187 0 87.4305V81.1254C0 73.2791 1.12149 65.713 3.36449 58.4271C5.88785 50.861 9.11215 43.5751 13.0374 36.5695C17.243 29.5638 21.8692 22.9785 26.9159 16.8136C31.9626 10.6486 37.1495 5.04407 42.4766 0H80.7477C70.0935 8.68701 61.6822 17.2339 55.514 25.6407C49.3458 33.7672 44.7196 42.7344 41.6355 52.5424H42.4766C51.4486 52.5424 59.1589 55.4847 65.6075 61.3695C72.3364 67.2542 75.7009 75.3808 75.7009 85.7491V87.4305C75.7009 97.5187 72.4766 106.206 66.028 113.492C59.5794 120.497 50.1869 124 37.8505 124ZM137.103 124C124.766 124 115.374 120.497 108.925 113.492C102.477 106.206 99.2523 97.5187 99.2523 87.4305V81.1254C99.2523 73.2791 100.374 65.713 102.617 58.4271C105.14 50.861 108.364 43.5751 112.29 36.5695C116.495 29.5638 121.122 22.9785 126.168 16.8136C131.215 10.6486 136.402 5.04407 141.729 0H180C169.346 8.68701 160.935 17.2339 154.766 25.6407C148.598 33.7672 143.972 42.7344 140.888 52.5424H141.729C150.701 52.5424 158.411 55.4847 164.86 61.3695C171.589 67.2542 174.953 75.3808 174.953 85.7491V87.4305C174.953 97.5187 171.729 106.206 165.28 113.492C158.832 120.497 149.439 124 137.103 124Z" fill="#494848" fill-opacity="0.2"/>
</svg>
