<svg width="180" height="124" viewBox="0 0 180 124" fill="none" xmlns="http://www.w3.org/2000/svg">
<path d="M0 124C10.6542 115.313 19.0654 106.906 25.2336 98.7797C31.4019 90.3729 36.028 81.2655 39.1121 71.4576H38.271C29.2991 71.4576 21.4486 68.5153 14.7196 62.6305C8.27103 56.7458 5.04673 48.6192 5.04673 38.2509V36.5695C5.04673 26.4814 8.27103 17.9345 14.7196 10.9288C21.1682 3.64293 30.5607 0 42.8972 0C55.2336 0 64.6262 3.64293 71.0748 10.9288C77.5234 17.9345 80.7477 26.4814 80.7477 36.5695V42.8746C80.7477 50.7209 79.486 58.4271 76.9626 65.9932C74.7196 73.5593 71.4953 80.8452 67.2897 87.8508C63.3645 94.5763 58.8785 101.021 53.8318 107.186C48.785 113.351 43.5981 118.956 38.271 124H0ZM99.2523 124C109.907 115.313 118.318 106.906 124.486 98.7797C130.654 90.3729 135.28 81.2655 138.364 71.4576H137.523C128.551 71.4576 120.701 68.5153 113.972 62.6305C107.523 56.7458 104.299 48.6192 104.299 38.2509V36.5695C104.299 26.4814 107.523 17.9345 113.972 10.9288C120.421 3.64293 129.813 0 142.15 0C154.486 0 163.879 3.64293 170.327 10.9288C176.776 17.9345 180 26.4814 180 36.5695V42.8746C180 50.7209 178.738 58.4271 176.215 65.9932C173.972 73.5593 170.748 80.8452 166.542 87.8508C162.617 94.5763 158.131 101.021 153.084 107.186C148.037 113.351 142.85 118.956 137.523 124H99.2523Z" fill="#494848" fill-opacity="0.2"/>
</svg>
