<svg width="130" height="119" viewBox="0 0 130 119" fill="none" xmlns="http://www.w3.org/2000/svg">
<g opacity="0.1">
<path d="M42.9926 118.963C36.3407 118.963 30.3977 117.927 25.1634 115.855C19.9292 113.674 15.4583 110.621 11.7507 106.695C8.15215 102.66 5.37146 97.8623 3.40862 92.3009C1.44578 86.6304 0.464355 80.2512 0.464355 73.1632C0.464355 61.6042 2.2091 51.5174 5.6986 42.9027C9.29714 34.179 14.2042 26.8729 20.4199 20.9844C26.6356 14.9868 33.9962 10.3523 42.5018 7.08089C51.1165 3.70045 60.44 1.62856 70.4723 0.865234L72.9259 9.86159C58.7498 13.3511 47.8451 19.2396 40.2119 27.5271C32.5786 35.7056 28.3258 45.9015 27.4534 58.1147L27.9441 58.2783C28.5984 56.3155 29.6343 54.4072 31.0519 52.5534C32.4696 50.5905 34.2688 48.9003 36.4498 47.4827C38.6307 45.956 41.1388 44.7565 43.974 43.8841C46.8092 42.9027 49.9715 42.412 53.461 42.412C63.9295 42.412 71.8354 45.5199 77.1787 51.7355C82.522 57.9512 85.1936 66.8385 85.1936 78.3974C85.1936 84.2859 84.2667 89.7383 82.4129 94.7544C80.5591 99.6615 77.833 103.914 74.2344 107.513C70.6359 111.111 66.2195 113.947 60.9853 116.019C55.751 117.981 49.7535 118.963 42.9926 118.963ZM42.829 107.186C45.9913 107.186 48.5539 106.695 50.5168 105.714C52.4796 104.623 53.9518 103.096 54.9332 101.134C56.0236 99.1708 56.7324 96.8263 57.0596 94.1001C57.4958 91.2649 57.7139 88.1026 57.7139 84.6131V80.6874C57.7139 77.1979 57.4958 74.0901 57.0596 71.3639C56.7324 68.5287 56.0236 66.1297 54.9332 64.1668C53.9518 62.204 52.4796 60.7319 50.5168 59.7504C48.5539 58.66 45.9913 58.1147 42.829 58.1147C39.6666 58.1147 37.104 58.66 35.1412 59.7504C33.1784 60.7319 31.6517 62.204 30.5612 64.1668C29.5798 66.1297 28.871 68.5287 28.4348 71.3639C28.1077 74.0901 27.9441 77.1979 27.9441 80.6874V84.6131C27.9441 88.1026 28.1077 91.2649 28.4348 94.1001C28.871 96.8263 29.5798 99.1708 30.5612 101.134C31.6517 103.096 33.1784 104.623 35.1412 105.714C37.104 106.695 39.6666 107.186 42.829 107.186Z" fill="#FCFCFC"/>
<path d="M114.899 118.963C110.101 118.963 106.448 117.6 103.94 114.874C101.432 112.038 100.178 108.658 100.178 104.732V104.078C100.178 100.152 101.432 96.8263 103.94 94.1001C106.448 91.2649 110.101 89.8473 114.899 89.8473C119.698 89.8473 123.351 91.2649 125.859 94.1001C128.367 96.8263 129.621 100.152 129.621 104.078V104.732C129.621 108.658 128.367 112.038 125.859 114.874C123.351 117.6 119.698 118.963 114.899 118.963Z" fill="#FCFCFC"/>
</g>
</svg>
